{
  "kind": "collectionType",
  "collectionName": "articles",
  "info": {
    "name": "Article"
  },
  "options": {
    "increments": true,
    "timestamps": true,
    "draftAndPublish": true
  },
  "pluginOptions": {},
  "attributes": {
    "Content": {
      "type": "richtext"
    },
    "Title": {
      "type": "string"
    },
    "published_date": {
      "type": "datetime"
    },
    "main_image": {
      "model": "file",
      "via": "related",
      "allowedTypes": [
        "images",
        "files",
        "videos"
      ],
      "plugin": "upload",
      "required": false,
      "pluginOptions": {}
    }
  }
}
